%YAML 1.1
%TAG !u! tag:unity3d.com,2011:
--- !u!29 &1
OcclusionCullingSettings:
  m_ObjectHideFlags: 0
  serializedVersion: 2
  m_OcclusionBakeSettings:
    smallestOccluder: 5
    smallestHole: 0.25
    backfaceThreshold: 100
  m_SceneGUID: 00000000000000000000000000000000
  m_OcclusionCullingData: {fileID: 0}
--- !u!104 &2
RenderSettings:
  m_ObjectHideFlags: 0
  serializedVersion: 9
  m_Fog: 0
  m_FogColor: {r: 0.5, g: 0.5, b: 0.5, a: 1}
  m_FogMode: 3
  m_FogDensity: 0.01
  m_LinearFogStart: 0
  m_LinearFogEnd: 300
  m_AmbientSkyColor: {r: 0.212, g: 0.227, b: 0.259, a: 1}
  m_AmbientEquatorColor: {r: 0.114, g: 0.125, b: 0.133, a: 1}
  m_AmbientGroundColor: {r: 0.047, g: 0.043, b: 0.035, a: 1}
  m_AmbientIntensity: 1
  m_AmbientMode: 0
  m_SubtractiveShadowColor: {r: 0.42, g: 0.478, b: 0.627, a: 1}
  m_SkyboxMaterial: {fileID: 10304, guid: 0000000000000000f000000000000000, type: 0}
  m_HaloStrength: 0.5
  m_FlareStrength: 1
  m_FlareFadeSpeed: 3
  m_HaloTexture: {fileID: 0}
  m_SpotCookie: {fileID: 10001, guid: 0000000000000000e000000000000000, type: 0}
  m_DefaultReflectionMode: 0
  m_DefaultReflectionResolution: 128
  m_ReflectionBounces: 1
  m_ReflectionIntensity: 1
  m_CustomReflection: {fileID: 0}
  m_Sun: {fileID: 0}
  m_IndirectSpecularColor: {r: 0.44657868, g: 0.49641263, b: 0.5748171, a: 1}
  m_UseRadianceAmbientProbe: 0
--- !u!157 &3
LightmapSettings:
  m_ObjectHideFlags: 0
  serializedVersion: 11
  m_GIWorkflowMode: 0
  m_GISettings:
    serializedVersion: 2
    m_BounceScale: 1
    m_IndirectOutputScale: 1
    m_AlbedoBoost: 1
    m_EnvironmentLightingMode: 0
    m_EnableBakedLightmaps: 1
    m_EnableRealtimeLightmaps: 1
  m_LightmapEditorSettings:
    serializedVersion: 10
    m_Resolution: 2
    m_BakeResolution: 40
    m_AtlasSize: 1024
    m_AO: 0
    m_AOMaxDistance: 1
    m_CompAOExponent: 1
    m_CompAOExponentDirect: 0
    m_Padding: 2
    m_LightmapParameters: {fileID: 0}
    m_LightmapsBakeMode: 1
    m_TextureCompression: 1
    m_FinalGather: 0
    m_FinalGatherFiltering: 1
    m_FinalGatherRayCount: 256
    m_ReflectionCompression: 2
    m_MixedBakeMode: 1
    m_BakeBackend: 0
    m_PVRSampling: 1
    m_PVRDirectSampleCount: 32
    m_PVRSampleCount: 500
    m_PVRBounces: 2
    m_PVRFilterTypeDirect: 0
    m_PVRFilterTypeIndirect: 0
    m_PVRFilterTypeAO: 0
    m_PVRFilteringMode: 0
    m_PVRCulling: 1
    m_PVRFilteringGaussRadiusDirect: 1
    m_PVRFilteringGaussRadiusIndirect: 5
    m_PVRFilteringGaussRadiusAO: 2
    m_PVRFilteringAtrousPositionSigmaDirect: 0.5
    m_PVRFilteringAtrousPositionSigmaIndirect: 2
    m_PVRFilteringAtrousPositionSigmaAO: 1
    m_ShowResolutionOverlay: 1
  m_LightingDataAsset: {fileID: 0}
  m_UseShadowmask: 0
--- !u!196 &4
NavMeshSettings:
  serializedVersion: 2
  m_ObjectHideFlags: 0
  m_BuildSettings:
    serializedVersion: 2
    agentTypeID: 0
    agentRadius: 0.5
    agentHeight: 2
    agentSlope: 45
    agentClimb: 0.4
    ledgeDropHeight: 0
    maxJumpAcrossDistance: 0
    minRegionArea: 2
    manualCellSize: 0
    cellSize: 0.16666667
    manualTileSize: 0
    tileSize: 256
    accuratePlacement: 0
    debug:
      m_Flags: 0
  m_NavMeshData: {fileID: 0}
--- !u!1001 &7445601
PrefabInstance:
  m_ObjectHideFlags: 0
  serializedVersion: 2
  m_Modification:
    m_TransformParent: {fileID: 296252719}
    m_Modifications:
    - target: {fileID: 4889076547100212, guid: fb80d574ec67a7c4e8ef1a14a65990f6, type: 3}
      propertyPath: m_LocalPosition.x
      value: -0
      objectReference: {fileID: 0}
    - target: {fileID: 4889076547100212, guid: fb80d574ec67a7c4e8ef1a14a65990f6, type: 3}
      propertyPath: m_LocalPosition.y
      value: 0
      objectReference: {fileID: 0}
    - target: {fileID: 4889076547100212, guid: fb80d574ec67a7c4e8ef1a14a65990f6, type: 3}
      propertyPath: m_LocalPosition.z
      value: -30
      objectReference: {fileID: 0}
    - target: {fileID: 4889076547100212, guid: fb80d574ec67a7c4e8ef1a14a65990f6, type: 3}
      propertyPath: m_LocalRotation.x
      value: 0.000000021855694
      objectReference: {fileID: 0}
    - target: {fileID: 4889076547100212, guid: fb80d574ec67a7c4e8ef1a14a65990f6, type: 3}
      propertyPath: m_LocalRotation.y
      value: 0
      objectReference: {fileID: 0}
    - target: {fileID: 4889076547100212, guid: fb80d574ec67a7c4e8ef1a14a65990f6, type: 3}
      propertyPath: m_LocalRotation.z
      value: -0
      objectReference: {fileID: 0}
    - target: {fileID: 4889076547100212, guid: fb80d574ec67a7c4e8ef1a14a65990f6, type: 3}
      propertyPath: m_LocalRotation.w
      value: 1
      objectReference: {fileID: 0}
    - target: {fileID: 4889076547100212, guid: fb80d574ec67a7c4e8ef1a14a65990f6, type: 3}
      propertyPath: m_RootOrder
      value: 2
      objectReference: {fileID: 0}
    m_RemovedComponents: []
  m_SourcePrefab: {fileID: 100100000, guid: fb80d574ec67a7c4e8ef1a14a65990f6, type: 3}
--- !u!4 &7445602 stripped
Transform:
  m_CorrespondingSourceObject: {fileID: 4889076547100212, guid: fb80d574ec67a7c4e8ef1a14a65990f6,
    type: 3}
  m_PrefabInstance: {fileID: 7445601}
  m_PrefabAsset: {fileID: 0}
--- !u!1001 &213835746
PrefabInstance:
  m_ObjectHideFlags: 0
  serializedVersion: 2
  m_Modification:
    m_TransformParent: {fileID: 1796466999}
    m_Modifications:
    - target: {fileID: 4633660960354252, guid: 206dc24d514cdd146a07be8e731a56e9, type: 3}
      propertyPath: m_LocalPosition.x
      value: -0
      objectReference: {fileID: 0}
    - target: {fileID: 4633660960354252, guid: 206dc24d514cdd146a07be8e731a56e9, type: 3}
      propertyPath: m_LocalPosition.y
      value: 0
      objectReference: {fileID: 0}
    - target: {fileID: 4633660960354252, guid: 206dc24d514cdd146a07be8e731a56e9, type: 3}
      propertyPath: m_LocalPosition.z
      value: -45
      objectReference: {fileID: 0}
    - target: {fileID: 4633660960354252, guid: 206dc24d514cdd146a07be8e731a56e9, type: 3}
      propertyPath: m_LocalRotation.x
      value: 0.000000021855694
      objectReference: {fileID: 0}
    - target: {fileID: 4633660960354252, guid: 206dc24d514cdd146a07be8e731a56e9, type: 3}
      propertyPath: m_LocalRotation.y
      value: 0
      objectReference: {fileID: 0}
    - target: {fileID: 4633660960354252, guid: 206dc24d514cdd146a07be8e731a56e9, type: 3}
      propertyPath: m_LocalRotation.z
      value: -0
      objectReference: {fileID: 0}
    - target: {fileID: 4633660960354252, guid: 206dc24d514cdd146a07be8e731a56e9, type: 3}
      propertyPath: m_LocalRotation.w
      value: 1
      objectReference: {fileID: 0}
    - target: {fileID: 4633660960354252, guid: 206dc24d514cdd146a07be8e731a56e9, type: 3}
      propertyPath: m_RootOrder
      value: 3
      objectReference: {fileID: 0}
    m_RemovedComponents: []
  m_SourcePrefab: {fileID: 100100000, guid: 206dc24d514cdd146a07be8e731a56e9, type: 3}
--- !u!4 &213835747 stripped
Transform:
  m_CorrespondingSourceObject: {fileID: 4633660960354252, guid: 206dc24d514cdd146a07be8e731a56e9,
    type: 3}
  m_PrefabInstance: {fileID: 213835746}
  m_PrefabAsset: {fileID: 0}
--- !u!1 &296252718
GameObject:
  m_ObjectHideFlags: 0
  m_CorrespondingSourceObject: {fileID: 100012, guid: 21c6d0bb8170cae4f9d49bb728b3f524,
    type: 3}
  m_PrefabInstance: {fileID: 0}
  m_PrefabAsset: {fileID: 0}
  serializedVersion: 6
  m_Component:
  - component: {fileID: 296252719}
  m_Layer: 0
  m_Name: StarSparrowExamples2
  m_TagString: Untagged
  m_Icon: {fileID: 0}
  m_NavMeshLayer: 0
  m_StaticEditorFlags: 0
  m_IsActive: 1
--- !u!4 &296252719
Transform:
  m_ObjectHideFlags: 0
  m_CorrespondingSourceObject: {fileID: 400012, guid: 21c6d0bb8170cae4f9d49bb728b3f524,
    type: 3}
  m_PrefabInstance: {fileID: 0}
  m_PrefabAsset: {fileID: 0}
  m_GameObject: {fileID: 296252718}
  m_LocalRotation: {x: 0, y: 0, z: 0, w: 1}
  m_LocalPosition: {x: 20, y: 0, z: 0}
  m_LocalScale: {x: 1, y: 1, z: 1}
  m_Children:
  - {fileID: 873943885}
  - {fileID: 857835808}
  - {fileID: 7445602}
  - {fileID: 1263352032}
  - {fileID: 1349507043}
  - {fileID: 693323271}
  m_Father: {fileID: 0}
  m_RootOrder: 3
  m_LocalEulerAnglesHint: {x: 0, y: 0, z: 0}
--- !u!1 &497615739
GameObject:
  m_ObjectHideFlags: 0
  m_CorrespondingSourceObject: {fileID: 0}
  m_PrefabInstance: {fileID: 0}
  m_PrefabAsset: {fileID: 0}
  serializedVersion: 6
  m_Component:
  - component: {fileID: 497615741}
  - component: {fileID: 497615740}
  m_Layer: 0
  m_Name: Directional Light
  m_TagString: Untagged
  m_Icon: {fileID: 0}
  m_NavMeshLayer: 0
  m_StaticEditorFlags: 0
  m_IsActive: 1
--- !u!108 &497615740
Light:
  m_ObjectHideFlags: 0
  m_CorrespondingSourceObject: {fileID: 0}
  m_PrefabInstance: {fileID: 0}
  m_PrefabAsset: {fileID: 0}
  m_GameObject: {fileID: 497615739}
  m_Enabled: 1
  serializedVersion: 8
  m_Type: 1
  m_Color: {r: 1, g: 0.95686275, b: 0.8392157, a: 1}
  m_Intensity: 1
  m_Range: 10
  m_SpotAngle: 30
  m_CookieSize: 10
  m_Shadows:
    m_Type: 2
    m_Resolution: -1
    m_CustomResolution: -1
    m_Strength: 1
    m_Bias: 0.05
    m_NormalBias: 0.4
    m_NearPlane: 0.2
  m_Cookie: {fileID: 0}
  m_DrawHalo: 0
  m_Flare: {fileID: 0}
  m_RenderMode: 0
  m_CullingMask:
    serializedVersion: 2
    m_Bits: 4294967295
  m_Lightmapping: 4
  m_LightShadowCasterMode: 0
  m_AreaSize: {x: 1, y: 1}
  m_BounceIntensity: 1
  m_ColorTemperature: 6570
  m_UseColorTemperature: 0
  m_ShadowRadius: 0
  m_ShadowAngle: 0
--- !u!4 &497615741
Transform:
  m_ObjectHideFlags: 0
  m_CorrespondingSourceObject: {fileID: 0}
  m_PrefabInstance: {fileID: 0}
  m_PrefabAsset: {fileID: 0}
  m_GameObject: {fileID: 497615739}
  m_LocalRotation: {x: 0.40821788, y: -0.23456968, z: 0.10938163, w: 0.8754261}
  m_LocalPosition: {x: 0, y: 3, z: 0}
  m_LocalScale: {x: 1, y: 1, z: 1}
  m_Children: []
  m_Father: {fileID: 0}
  m_RootOrder: 1
  m_LocalEulerAnglesHint: {x: 50, y: -30, z: 0}
--- !u!1001 &501192798
PrefabInstance:
  m_ObjectHideFlags: 0
  serializedVersion: 2
  m_Modification:
    m_TransformParent: {fileID: 1796466999}
    m_Modifications:
    - target: {fileID: 4288594156929110, guid: c79905ec17c169a49b75177b6cf0d524, type: 3}
      propertyPath: m_LocalPosition.x
      value: -0
      objectReference: {fileID: 0}
    - target: {fileID: 4288594156929110, guid: c79905ec17c169a49b75177b6cf0d524, type: 3}
      propertyPath: m_LocalPosition.y
      value: 0
      objectReference: {fileID: 0}
    - target: {fileID: 4288594156929110, guid: c79905ec17c169a49b75177b6cf0d524, type: 3}
      propertyPath: m_LocalPosition.z
      value: -90
      objectReference: {fileID: 0}
    - target: {fileID: 4288594156929110, guid: c79905ec17c169a49b75177b6cf0d524, type: 3}
      propertyPath: m_LocalRotation.x
      value: 0.000000021855694
      objectReference: {fileID: 0}
    - target: {fileID: 4288594156929110, guid: c79905ec17c169a49b75177b6cf0d524, type: 3}
      propertyPath: m_LocalRotation.y
      value: 0
      objectReference: {fileID: 0}
    - target: {fileID: 4288594156929110, guid: c79905ec17c169a49b75177b6cf0d524, type: 3}
      propertyPath: m_LocalRotation.z
      value: -0
      objectReference: {fileID: 0}
    - target: {fileID: 4288594156929110, guid: c79905ec17c169a49b75177b6cf0d524, type: 3}
      propertyPath: m_LocalRotation.w
      value: 1
      objectReference: {fileID: 0}
    - target: {fileID: 4288594156929110, guid: c79905ec17c169a49b75177b6cf0d524, type: 3}
      propertyPath: m_RootOrder
      value: 6
      objectReference: {fileID: 0}
    m_RemovedComponents: []
  m_SourcePrefab: {fileID: 100100000, guid: c79905ec17c169a49b75177b6cf0d524, type: 3}
--- !u!4 &501192799 stripped
Transform:
  m_CorrespondingSourceObject: {fileID: 4288594156929110, guid: c79905ec17c169a49b75177b6cf0d524,
    type: 3}
  m_PrefabInstance: {fileID: 501192798}
  m_PrefabAsset: {fileID: 0}
--- !u!1001 &550831118
PrefabInstance:
  m_ObjectHideFlags: 0
  serializedVersion: 2
  m_Modification:
    m_TransformParent: {fileID: 1796466999}
    m_Modifications:
    - target: {fileID: 4433942057210488, guid: f805c7b2f982faf43833878e4f22ae2a, type: 3}
      propertyPath: m_LocalPosition.x
      value: -0
      objectReference: {fileID: 0}
    - target: {fileID: 4433942057210488, guid: f805c7b2f982faf43833878e4f22ae2a, type: 3}
      propertyPath: m_LocalPosition.y
      value: 0
      objectReference: {fileID: 0}
    - target: {fileID: 4433942057210488, guid: f805c7b2f982faf43833878e4f22ae2a, type: 3}
      propertyPath: m_LocalPosition.z
      value: 0
      objectReference: {fileID: 0}
    - target: {fileID: 4433942057210488, guid: f805c7b2f982faf43833878e4f22ae2a, type: 3}
      propertyPath: m_LocalRotation.x
      value: 0.000000021855694
      objectReference: {fileID: 0}
    - target: {fileID: 4433942057210488, guid: f805c7b2f982faf43833878e4f22ae2a, type: 3}
      propertyPath: m_LocalRotation.y
      value: 0
      objectReference: {fileID: 0}
    - target: {fileID: 4433942057210488, guid: f805c7b2f982faf43833878e4f22ae2a, type: 3}
      propertyPath: m_LocalRotation.z
      value: -0
      objectReference: {fileID: 0}
    - target: {fileID: 4433942057210488, guid: f805c7b2f982faf43833878e4f22ae2a, type: 3}
      propertyPath: m_LocalRotation.w
      value: 1
      objectReference: {fileID: 0}
    - target: {fileID: 4433942057210488, guid: f805c7b2f982faf43833878e4f22ae2a, type: 3}
      propertyPath: m_RootOrder
      value: 0
      objectReference: {fileID: 0}
    m_RemovedComponents: []
  m_SourcePrefab: {fileID: 100100000, guid: f805c7b2f982faf43833878e4f22ae2a, type: 3}
--- !u!4 &550831119 stripped
Transform:
  m_CorrespondingSourceObject: {fileID: 4433942057210488, guid: f805c7b2f982faf43833878e4f22ae2a,
    type: 3}
  m_PrefabInstance: {fileID: 550831118}
  m_PrefabAsset: {fileID: 0}
--- !u!1001 &693323270
PrefabInstance:
  m_ObjectHideFlags: 0
  serializedVersion: 2
  m_Modification:
    m_TransformParent: {fileID: 296252719}
    m_Modifications:
    - target: {fileID: 4331568703382362, guid: 6647bc14b7f253f4aa7ed042ccbd8304, type: 3}
      propertyPath: m_LocalPosition.x
      value: -0
      objectReference: {fileID: 0}
    - target: {fileID: 4331568703382362, guid: 6647bc14b7f253f4aa7ed042ccbd8304, type: 3}
      propertyPath: m_LocalPosition.y
      value: 0
      objectReference: {fileID: 0}
    - target: {fileID: 4331568703382362, guid: 6647bc14b7f253f4aa7ed042ccbd8304, type: 3}
      propertyPath: m_LocalPosition.z
      value: -75
      objectReference: {fileID: 0}
    - target: {fileID: 4331568703382362, guid: 6647bc14b7f253f4aa7ed042ccbd8304, type: 3}
      propertyPath: m_LocalRotation.x
      value: 0.000000021855694
      objectReference: {fileID: 0}
    - target: {fileID: 4331568703382362, guid: 6647bc14b7f253f4aa7ed042ccbd8304, type: 3}
      propertyPath: m_LocalRotation.y
      value: 0
      objectReference: {fileID: 0}
    - target: {fileID: 4331568703382362, guid: 6647bc14b7f253f4aa7ed042ccbd8304, type: 3}
      propertyPath: m_LocalRotation.z
      value: -0
      objectReference: {fileID: 0}
    - target: {fileID: 4331568703382362, guid: 6647bc14b7f253f4aa7ed042ccbd8304, type: 3}
      propertyPath: m_LocalRotation.w
      value: 1
      objectReference: {fileID: 0}
    - target: {fileID: 4331568703382362, guid: 6647bc14b7f253f4aa7ed042ccbd8304, type: 3}
      propertyPath: m_RootOrder
      value: 5
      objectReference: {fileID: 0}
    m_RemovedComponents: []
  m_SourcePrefab: {fileID: 100100000, guid: 6647bc14b7f253f4aa7ed042ccbd8304, type: 3}
--- !u!4 &693323271 stripped
Transform:
  m_CorrespondingSourceObject: {fileID: 4331568703382362, guid: 6647bc14b7f253f4aa7ed042ccbd8304,
    type: 3}
  m_PrefabInstance: {fileID: 693323270}
  m_PrefabAsset: {fileID: 0}
--- !u!1001 &857835807
PrefabInstance:
  m_ObjectHideFlags: 0
  serializedVersion: 2
  m_Modification:
    m_TransformParent: {fileID: 296252719}
    m_Modifications:
    - target: {fileID: 4172660377238974, guid: 7861019a7b8cb6f4db5310695263b29a, type: 3}
      propertyPath: m_LocalPosition.x
      value: -0
      objectReference: {fileID: 0}
    - target: {fileID: 4172660377238974, guid: 7861019a7b8cb6f4db5310695263b29a, type: 3}
      propertyPath: m_LocalPosition.y
      value: 0
      objectReference: {fileID: 0}
    - target: {fileID: 4172660377238974, guid: 7861019a7b8cb6f4db5310695263b29a, type: 3}
      propertyPath: m_LocalPosition.z
      value: -15
      objectReference: {fileID: 0}
    - target: {fileID: 4172660377238974, guid: 7861019a7b8cb6f4db5310695263b29a, type: 3}
      propertyPath: m_LocalRotation.x
      value: 0.000000021855694
      objectReference: {fileID: 0}
    - target: {fileID: 4172660377238974, guid: 7861019a7b8cb6f4db5310695263b29a, type: 3}
      propertyPath: m_LocalRotation.y
      value: 0
      objectReference: {fileID: 0}
    - target: {fileID: 4172660377238974, guid: 7861019a7b8cb6f4db5310695263b29a, type: 3}
      propertyPath: m_LocalRotation.z
      value: -0
      objectReference: {fileID: 0}
    - target: {fileID: 4172660377238974, guid: 7861019a7b8cb6f4db5310695263b29a, type: 3}
      propertyPath: m_LocalRotation.w
      value: 1
      objectReference: {fileID: 0}
    - target: {fileID: 4172660377238974, guid: 7861019a7b8cb6f4db5310695263b29a, type: 3}
      propertyPath: m_RootOrder
      value: 1
      objectReference: {fileID: 0}
    m_RemovedComponents: []
  m_SourcePrefab: {fileID: 100100000, guid: 7861019a7b8cb6f4db5310695263b29a, type: 3}
--- !u!4 &857835808 stripped
Transform:
  m_CorrespondingSourceObject: {fileID: 4172660377238974, guid: 7861019a7b8cb6f4db5310695263b29a,
    type: 3}
  m_PrefabInstance: {fileID: 857835807}
  m_PrefabAsset: {fileID: 0}
--- !u!1001 &870892017
PrefabInstance:
  m_ObjectHideFlags: 0
  serializedVersion: 2
  m_Modification:
    m_TransformParent: {fileID: 1796466999}
    m_Modifications:
    - target: {fileID: 4674827468582762, guid: 4d54efa43b03b1845b929768cf25e790, type: 3}
      propertyPath: m_LocalPosition.x
      value: -0
      objectReference: {fileID: 0}
    - target: {fileID: 4674827468582762, guid: 4d54efa43b03b1845b929768cf25e790, type: 3}
      propertyPath: m_LocalPosition.y
      value: 0
      objectReference: {fileID: 0}
    - target: {fileID: 4674827468582762, guid: 4d54efa43b03b1845b929768cf25e790, type: 3}
      propertyPath: m_LocalPosition.z
      value: -60
      objectReference: {fileID: 0}
    - target: {fileID: 4674827468582762, guid: 4d54efa43b03b1845b929768cf25e790, type: 3}
      propertyPath: m_LocalRotation.x
      value: 0.000000021855694
      objectReference: {fileID: 0}
    - target: {fileID: 4674827468582762, guid: 4d54efa43b03b1845b929768cf25e790, type: 3}
      propertyPath: m_LocalRotation.y
      value: 0
      objectReference: {fileID: 0}
    - target: {fileID: 4674827468582762, guid: 4d54efa43b03b1845b929768cf25e790, type: 3}
      propertyPath: m_LocalRotation.z
      value: -0
      objectReference: {fileID: 0}
    - target: {fileID: 4674827468582762, guid: 4d54efa43b03b1845b929768cf25e790, type: 3}
      propertyPath: m_LocalRotation.w
      value: 1
      objectReference: {fileID: 0}
    - target: {fileID: 4674827468582762, guid: 4d54efa43b03b1845b929768cf25e790, type: 3}
      propertyPath: m_RootOrder
      value: 4
      objectReference: {fileID: 0}
    m_RemovedComponents: []
  m_SourcePrefab: {fileID: 100100000, guid: 4d54efa43b03b1845b929768cf25e790, type: 3}
--- !u!4 &870892018 stripped
Transform:
  m_CorrespondingSourceObject: {fileID: 4674827468582762, guid: 4d54efa43b03b1845b929768cf25e790,
    type: 3}
  m_PrefabInstance: {fileID: 870892017}
  m_PrefabAsset: {fileID: 0}
--- !u!1001 &873943884
PrefabInstance:
  m_ObjectHideFlags: 0
  serializedVersion: 2
  m_Modification:
    m_TransformParent: {fileID: 296252719}
    m_Modifications:
    - target: {fileID: 4312138073662048, guid: 12e2965e034095b40b035c26bdecd5ed, type: 3}
      propertyPath: m_LocalPosition.x
      value: -0
      objectReference: {fileID: 0}
    - target: {fileID: 4312138073662048, guid: 12e2965e034095b40b035c26bdecd5ed, type: 3}
      propertyPath: m_LocalPosition.y
      value: 0
      objectReference: {fileID: 0}
    - target: {fileID: 4312138073662048, guid: 12e2965e034095b40b035c26bdecd5ed, type: 3}
      propertyPath: m_LocalPosition.z
      value: 0
      objectReference: {fileID: 0}
    - target: {fileID: 4312138073662048, guid: 12e2965e034095b40b035c26bdecd5ed, type: 3}
      propertyPath: m_LocalRotation.x
      value: 0.000000021855694
      objectReference: {fileID: 0}
    - target: {fileID: 4312138073662048, guid: 12e2965e034095b40b035c26bdecd5ed, type: 3}
      propertyPath: m_LocalRotation.y
      value: 0
      objectReference: {fileID: 0}
    - target: {fileID: 4312138073662048, guid: 12e2965e034095b40b035c26bdecd5ed, type: 3}
      propertyPath: m_LocalRotation.z
      value: -0
      objectReference: {fileID: 0}
    - target: {fileID: 4312138073662048, guid: 12e2965e034095b40b035c26bdecd5ed, type: 3}
      propertyPath: m_LocalRotation.w
      value: 1
      objectReference: {fileID: 0}
    - target: {fileID: 4312138073662048, guid: 12e2965e034095b40b035c26bdecd5ed, type: 3}
      propertyPath: m_RootOrder
      value: 0
      objectReference: {fileID: 0}
    m_RemovedComponents: []
  m_SourcePrefab: {fileID: 100100000, guid: 12e2965e034095b40b035c26bdecd5ed, type: 3}
--- !u!4 &873943885 stripped
Transform:
  m_CorrespondingSourceObject: {fileID: 4312138073662048, guid: 12e2965e034095b40b035c26bdecd5ed,
    type: 3}
  m_PrefabInstance: {fileID: 873943884}
  m_PrefabAsset: {fileID: 0}
--- !u!1001 &1073139962
PrefabInstance:
  m_ObjectHideFlags: 0
  serializedVersion: 2
  m_Modification:
    m_TransformParent: {fileID: 1796466999}
    m_Modifications:
    - target: {fileID: 4197128655073178, guid: 33942a27e06a55e498652847d7d15f99, type: 3}
      propertyPath: m_LocalPosition.x
      value: -0
      objectReference: {fileID: 0}
    - target: {fileID: 4197128655073178, guid: 33942a27e06a55e498652847d7d15f99, type: 3}
      propertyPath: m_LocalPosition.y
      value: 0
      objectReference: {fileID: 0}
    - target: {fileID: 4197128655073178, guid: 33942a27e06a55e498652847d7d15f99, type: 3}
      propertyPath: m_LocalPosition.z
      value: -75
      objectReference: {fileID: 0}
    - target: {fileID: 4197128655073178, guid: 33942a27e06a55e498652847d7d15f99, type: 3}
      propertyPath: m_LocalRotation.x
      value: 0.000000021855694
      objectReference: {fileID: 0}
    - target: {fileID: 4197128655073178, guid: 33942a27e06a55e498652847d7d15f99, type: 3}
      propertyPath: m_LocalRotation.y
      value: 0
      objectReference: {fileID: 0}
    - target: {fileID: 4197128655073178, guid: 33942a27e06a55e498652847d7d15f99, type: 3}
      propertyPath: m_LocalRotation.z
      value: -0
      objectReference: {fileID: 0}
    - target: {fileID: 4197128655073178, guid: 33942a27e06a55e498652847d7d15f99, type: 3}
      propertyPath: m_LocalRotation.w
      value: 1
      objectReference: {fileID: 0}
    - target: {fileID: 4197128655073178, guid: 33942a27e06a55e498652847d7d15f99, type: 3}
      propertyPath: m_RootOrder
      value: 5
      objectReference: {fileID: 0}
    m_RemovedComponents: []
  m_SourcePrefab: {fileID: 100100000, guid: 33942a27e06a55e498652847d7d15f99, type: 3}
--- !u!4 &1073139963 stripped
Transform:
  m_CorrespondingSourceObject: {fileID: 4197128655073178, guid: 33942a27e06a55e498652847d7d15f99,
    type: 3}
  m_PrefabInstance: {fileID: 1073139962}
  m_PrefabAsset: {fileID: 0}
--- !u!1001 &1263352031
PrefabInstance:
  m_ObjectHideFlags: 0
  serializedVersion: 2
  m_Modification:
    m_TransformParent: {fileID: 296252719}
    m_Modifications:
    - target: {fileID: 4465035140963908, guid: 5a073d16030e9bb4ab4bab71c3124066, type: 3}
      propertyPath: m_LocalPosition.x
      value: -0
      objectReference: {fileID: 0}
    - target: {fileID: 4465035140963908, guid: 5a073d16030e9bb4ab4bab71c3124066, type: 3}
      propertyPath: m_LocalPosition.y
      value: 0
      objectReference: {fileID: 0}
    - target: {fileID: 4465035140963908, guid: 5a073d16030e9bb4ab4bab71c3124066, type: 3}
      propertyPath: m_LocalPosition.z
      value: -45
      objectReference: {fileID: 0}
    - target: {fileID: 4465035140963908, guid: 5a073d16030e9bb4ab4bab71c3124066, type: 3}
      propertyPath: m_LocalRotation.x
      value: 0.000000021855694
      objectReference: {fileID: 0}
    - target: {fileID: 4465035140963908, guid: 5a073d16030e9bb4ab4bab71c3124066, type: 3}
      propertyPath: m_LocalRotation.y
      value: 0
      objectReference: {fileID: 0}
    - target: {fileID: 4465035140963908, guid: 5a073d16030e9bb4ab4bab71c3124066, type: 3}
      propertyPath: m_LocalRotation.z
      value: -0
      objectReference: {fileID: 0}
    - target: {fileID: 4465035140963908, guid: 5a073d16030e9bb4ab4bab71c3124066, type: 3}
      propertyPath: m_LocalRotation.w
      value: 1
      objectReference: {fileID: 0}
    - target: {fileID: 4465035140963908, guid: 5a073d16030e9bb4ab4bab71c3124066, type: 3}
      propertyPath: m_RootOrder
      value: 3
      objectReference: {fileID: 0}
    m_RemovedComponents: []
  m_SourcePrefab: {fileID: 100100000, guid: 5a073d16030e9bb4ab4bab71c3124066, type: 3}
--- !u!4 &1263352032 stripped
Transform:
  m_CorrespondingSourceObject: {fileID: 4465035140963908, guid: 5a073d16030e9bb4ab4bab71c3124066,
    type: 3}
  m_PrefabInstance: {fileID: 1263352031}
  m_PrefabAsset: {fileID: 0}
--- !u!1001 &1349507042
PrefabInstance:
  m_ObjectHideFlags: 0
  serializedVersion: 2
  m_Modification:
    m_TransformParent: {fileID: 296252719}
    m_Modifications:
    - target: {fileID: 4775774438825354, guid: 79e4c0d1647edb24e82e40e6b4bcaa7b, type: 3}
      propertyPath: m_LocalPosition.x
      value: -0
      objectReference: {fileID: 0}
    - target: {fileID: 4775774438825354, guid: 79e4c0d1647edb24e82e40e6b4bcaa7b, type: 3}
      propertyPath: m_LocalPosition.y
      value: 0
      objectReference: {fileID: 0}
    - target: {fileID: 4775774438825354, guid: 79e4c0d1647edb24e82e40e6b4bcaa7b, type: 3}
      propertyPath: m_LocalPosition.z
      value: -60.000004
      objectReference: {fileID: 0}
    - target: {fileID: 4775774438825354, guid: 79e4c0d1647edb24e82e40e6b4bcaa7b, type: 3}
      propertyPath: m_LocalRotation.x
      value: 0.000000021855694
      objectReference: {fileID: 0}
    - target: {fileID: 4775774438825354, guid: 79e4c0d1647edb24e82e40e6b4bcaa7b, type: 3}
      propertyPath: m_LocalRotation.y
      value: 0
      objectReference: {fileID: 0}
    - target: {fileID: 4775774438825354, guid: 79e4c0d1647edb24e82e40e6b4bcaa7b, type: 3}
      propertyPath: m_LocalRotation.z
      value: -0
      objectReference: {fileID: 0}
    - target: {fileID: 4775774438825354, guid: 79e4c0d1647edb24e82e40e6b4bcaa7b, type: 3}
      propertyPath: m_LocalRotation.w
      value: 1
      objectReference: {fileID: 0}
    - target: {fileID: 4775774438825354, guid: 79e4c0d1647edb24e82e40e6b4bcaa7b, type: 3}
      propertyPath: m_RootOrder
      value: 4
      objectReference: {fileID: 0}
    m_RemovedComponents: []
  m_SourcePrefab: {fileID: 100100000, guid: 79e4c0d1647edb24e82e40e6b4bcaa7b, type: 3}
--- !u!4 &1349507043 stripped
Transform:
  m_CorrespondingSourceObject: {fileID: 4775774438825354, guid: 79e4c0d1647edb24e82e40e6b4bcaa7b,
    type: 3}
  m_PrefabInstance: {fileID: 1349507042}
  m_PrefabAsset: {fileID: 0}
--- !u!1001 &1681573649
PrefabInstance:
  m_ObjectHideFlags: 0
  serializedVersion: 2
  m_Modification:
    m_TransformParent: {fileID: 1796466999}
    m_Modifications:
    - target: {fileID: 4944201315585692, guid: dae7a3955bbf76e409d09988296acacb, type: 3}
      propertyPath: m_LocalPosition.x
      value: -0
      objectReference: {fileID: 0}
    - target: {fileID: 4944201315585692, guid: dae7a3955bbf76e409d09988296acacb, type: 3}
      propertyPath: m_LocalPosition.y
      value: 0
      objectReference: {fileID: 0}
    - target: {fileID: 4944201315585692, guid: dae7a3955bbf76e409d09988296acacb, type: 3}
      propertyPath: m_LocalPosition.z
      value: -14.999998
      objectReference: {fileID: 0}
    - target: {fileID: 4944201315585692, guid: dae7a3955bbf76e409d09988296acacb, type: 3}
      propertyPath: m_LocalRotation.x
      value: 0.000000021855694
      objectReference: {fileID: 0}
    - target: {fileID: 4944201315585692, guid: dae7a3955bbf76e409d09988296acacb, type: 3}
      propertyPath: m_LocalRotation.y
      value: 0
      objectReference: {fileID: 0}
    - target: {fileID: 4944201315585692, guid: dae7a3955bbf76e409d09988296acacb, type: 3}
      propertyPath: m_LocalRotation.z
      value: -0
      objectReference: {fileID: 0}
    - target: {fileID: 4944201315585692, guid: dae7a3955bbf76e409d09988296acacb, type: 3}
      propertyPath: m_LocalRotation.w
      value: 1
      objectReference: {fileID: 0}
    - target: {fileID: 4944201315585692, guid: dae7a3955bbf76e409d09988296acacb, type: 3}
      propertyPath: m_RootOrder
      value: 1
      objectReference: {fileID: 0}
    m_RemovedComponents: []
  m_SourcePrefab: {fileID: 100100000, guid: dae7a3955bbf76e409d09988296acacb, type: 3}
--- !u!4 &1681573650 stripped
Transform:
  m_CorrespondingSourceObject: {fileID: 4944201315585692, guid: dae7a3955bbf76e409d09988296acacb,
    type: 3}
  m_PrefabInstance: {fileID: 1681573649}
  m_PrefabAsset: {fileID: 0}
--- !u!1 &1796466998
GameObject:
  m_ObjectHideFlags: 0
  m_CorrespondingSourceObject: {fileID: 100014, guid: e0f90ad78680d6145b082ac69f7fc504,
    type: 3}
  m_PrefabInstance: {fileID: 0}
  m_PrefabAsset: {fileID: 0}
  serializedVersion: 6
  m_Component:
  - component: {fileID: 1796466999}
  m_Layer: 0
  m_Name: StarSparrowExamples1
  m_TagString: Untagged
  m_Icon: {fileID: 0}
  m_NavMeshLayer: 0
  m_StaticEditorFlags: 0
  m_IsActive: 1
--- !u!4 &1796466999
Transform:
  m_ObjectHideFlags: 0
  m_CorrespondingSourceObject: {fileID: 400014, guid: e0f90ad78680d6145b082ac69f7fc504,
    type: 3}
  m_PrefabInstance: {fileID: 0}
  m_PrefabAsset: {fileID: 0}
  m_GameObject: {fileID: 1796466998}
  m_LocalRotation: {x: 0, y: 0, z: 0, w: 1}
  m_LocalPosition: {x: 0, y: 0, z: 0}
  m_LocalScale: {x: 1, y: 1, z: 1}
  m_Children:
  - {fileID: 550831119}
  - {fileID: 1681573650}
  - {fileID: 1833085764}
  - {fileID: 213835747}
  - {fileID: 870892018}
  - {fileID: 1073139963}
  - {fileID: 501192799}
  m_Father: {fileID: 0}
  m_RootOrder: 2
  m_LocalEulerAnglesHint: {x: 0, y: 0, z: 0}
--- !u!1 &1828872409
GameObject:
  m_ObjectHideFlags: 0
  m_CorrespondingSourceObject: {fileID: 0}
  m_PrefabInstance: {fileID: 0}
  m_PrefabAsset: {fileID: 0}
  serializedVersion: 6
  m_Component:
  - component: {fileID: 1828872414}
  - component: {fileID: 1828872413}
  - component: {fileID: 1828872412}
  - component: {fileID: 1828872411}
  - component: {fileID: 1828872410}
  m_Layer: 0
  m_Name: Main Camera
  m_TagString: MainCamera
  m_Icon: {fileID: 0}
  m_NavMeshLayer: 0
  m_StaticEditorFlags: 0
  m_IsActive: 1
--- !u!81 &1828872410
AudioListener:
  m_ObjectHideFlags: 0
  m_CorrespondingSourceObject: {fileID: 0}
  m_PrefabInstance: {fileID: 0}
  m_PrefabAsset: {fileID: 0}
  m_GameObject: {fileID: 1828872409}
  m_Enabled: 1
--- !u!124 &1828872411
Behaviour:
  m_ObjectHideFlags: 0
  m_CorrespondingSourceObject: {fileID: 0}
  m_PrefabInstance: {fileID: 0}
  m_PrefabAsset: {fileID: 0}
  m_GameObject: {fileID: 1828872409}
  m_Enabled: 1
--- !u!92 &1828872412
Behaviour:
  m_ObjectHideFlags: 0
  m_CorrespondingSourceObject: {fileID: 0}
  m_PrefabInstance: {fileID: 0}
  m_PrefabAsset: {fileID: 0}
  m_GameObject: {fileID: 1828872409}
  m_Enabled: 1
--- !u!20 &1828872413
Camera:
  m_ObjectHideFlags: 0
  m_CorrespondingSourceObject: {fileID: 0}
  m_PrefabInstance: {fileID: 0}
  m_PrefabAsset: {fileID: 0}
  m_GameObject: {fileID: 1828872409}
  m_Enabled: 1
  serializedVersion: 2
  m_ClearFlags: 1
  m_BackGroundColor: {r: 0.19215687, g: 0.3019608, b: 0.4745098, a: 0}
  m_projectionMatrixMode: 1
  m_SensorSize: {x: 36, y: 24}
  m_LensShift: {x: 0, y: 0}
  m_GateFitMode: 2
  m_FocalLength: 50
  m_NormalizedViewPortRect:
    serializedVersion: 2
    x: 0
    y: 0
    width: 1
    height: 1
  near clip plane: 0.3
  far clip plane: 1000
  field of view: 60
  orthographic: 0
  orthographic size: 5
  m_Depth: -1
  m_CullingMask:
    serializedVersion: 2
    m_Bits: 4294967295
  m_RenderingPath: -1
  m_TargetTexture: {fileID: 0}
  m_TargetDisplay: 0
  m_TargetEye: 3
  m_HDR: 0
  m_AllowMSAA: 1
  m_AllowDynamicResolution: 0
  m_ForceIntoRT: 0
  m_OcclusionCulling: 1
  m_StereoConvergence: 10
  m_StereoSeparation: 0.022
--- !u!4 &1828872414
Transform:
  m_ObjectHideFlags: 0
  m_CorrespondingSourceObject: {fileID: 0}
  m_PrefabInstance: {fileID: 0}
  m_PrefabAsset: {fileID: 0}
  m_GameObject: {fileID: 1828872409}
  m_LocalRotation: {x: 0, y: 0, z: 0, w: 1}
  m_LocalPosition: {x: 0, y: 1, z: -10}
  m_LocalScale: {x: 1, y: 1, z: 1}
  m_Children: []
  m_Father: {fileID: 0}
  m_RootOrder: 0
  m_LocalEulerAnglesHint: {x: 0, y: 0, z: 0}
--- !u!1001 &1833085763
PrefabInstance:
  m_ObjectHideFlags: 0
  serializedVersion: 2
  m_Modification:
    m_TransformParent: {fileID: 1796466999}
    m_Modifications:
    - target: {fileID: 4530302269161020, guid: e261f7b66a8f0fd4492d87df1eee4222, type: 3}
      propertyPath: m_LocalPosition.x
      value: -0
      objectReference: {fileID: 0}
    - target: {fileID: 4530302269161020, guid: e261f7b66a8f0fd4492d87df1eee4222, type: 3}
      propertyPath: m_LocalPosition.y
      value: 0
      objectReference: {fileID: 0}
    - target: {fileID: 4530302269161020, guid: e261f7b66a8f0fd4492d87df1eee4222, type: 3}
      propertyPath: m_LocalPosition.z
      value: -30
      objectReference: {fileID: 0}
    - target: {fileID: 4530302269161020, guid: e261f7b66a8f0fd4492d87df1eee4222, type: 3}
      propertyPath: m_LocalRotation.x
      value: 0.000000021855694
      objectReference: {fileID: 0}
    - target: {fileID: 4530302269161020, guid: e261f7b66a8f0fd4492d87df1eee4222, type: 3}
      propertyPath: m_LocalRotation.y
      value: 0
      objectReference: {fileID: 0}
    - target: {fileID: 4530302269161020, guid: e261f7b66a8f0fd4492d87df1eee4222, type: 3}
      propertyPath: m_LocalRotation.z
      value: -0
      objectReference: {fileID: 0}
    - target: {fileID: 4530302269161020, guid: e261f7b66a8f0fd4492d87df1eee4222, type: 3}
      propertyPath: m_LocalRotation.w
      value: 1
      objectReference: {fileID: 0}
    - target: {fileID: 4530302269161020, guid: e261f7b66a8f0fd4492d87df1eee4222, type: 3}
      propertyPath: m_RootOrder
      value: 2
      objectReference: {fileID: 0}
    m_RemovedComponents: []
  m_SourcePrefab: {fileID: 100100000, guid: e261f7b66a8f0fd4492d87df1eee4222, type: 3}
--- !u!4 &1833085764 stripped
Transform:
  m_CorrespondingSourceObject: {fileID: 4530302269161020, guid: e261f7b66a8f0fd4492d87df1eee4222,
    type: 3}
  m_PrefabInstance: {fileID: 1833085763}
  m_PrefabAsset: {fileID: 0}
