%YAML 1.1
%TAG !u! tag:unity3d.com,2011:
--- !u!114 &590451032654219008
MonoBehaviour:
  m_ObjectHideFlags: 0
  m_CorrespondingSourceObject: {fileID: 0}
  m_PrefabInstance: {fileID: 0}
  m_PrefabAsset: {fileID: 0}
  m_GameObject: {fileID: 5532420501255105364}
  m_Enabled: 1
  m_EditorHideFlags: 0
  m_Script: {fileID: 11500000, guid: f32819e66a83e7b4eb3b15e0e72315bc, type: 3}
  m_Name: 
  m_EditorClassIdentifier: 
  BossDeathTrigger:
    m_PersistentCalls:
      m_Calls: []
    m_TypeName: UnityEngine.Events.UnityEvent, UnityEngine.CoreModule, Version=0.0.0.0,
      Culture=neutral, PublicKeyToken=null
  Bullet: {fileID: 7256438956205979625, guid: 84d9cc7ad01b2d143b6be2e7169c00a5, type: 3}
  startingHealth: 0
  healthBar: {fileID: 5076654715974802066}
--- !u!1001 &5076654716520419196
PrefabInstance:
  m_ObjectHideFlags: 0
  serializedVersion: 2
  m_Modification:
    m_TransformParent: {fileID: 0}
    m_Modifications:
    - target: {fileID: 771520381510280232, guid: 88c4d5f211b50ed4abd17682825527ff,
        type: 3}
      propertyPath: m_Name
      value: Boss Variant
      objectReference: {fileID: 0}
    - target: {fileID: 771520381510280232, guid: 88c4d5f211b50ed4abd17682825527ff,
        type: 3}
      propertyPath: m_IsActive
      value: 1
      objectReference: {fileID: 0}
    - target: {fileID: 771520381510280228, guid: 88c4d5f211b50ed4abd17682825527ff,
        type: 3}
      propertyPath: m_LocalPosition.x
      value: 120
      objectReference: {fileID: 0}
    - target: {fileID: 771520381510280228, guid: 88c4d5f211b50ed4abd17682825527ff,
        type: 3}
      propertyPath: m_LocalPosition.y
      value: 7.5
      objectReference: {fileID: 0}
    - target: {fileID: 771520381510280228, guid: 88c4d5f211b50ed4abd17682825527ff,
        type: 3}
      propertyPath: m_LocalPosition.z
      value: 0
      objectReference: {fileID: 0}
    - target: {fileID: 771520381510280228, guid: 88c4d5f211b50ed4abd17682825527ff,
        type: 3}
      propertyPath: m_LocalRotation.x
      value: 0
      objectReference: {fileID: 0}
    - target: {fileID: 771520381510280228, guid: 88c4d5f211b50ed4abd17682825527ff,
        type: 3}
      propertyPath: m_LocalRotation.y
      value: 0
      objectReference: {fileID: 0}
    - target: {fileID: 771520381510280228, guid: 88c4d5f211b50ed4abd17682825527ff,
        type: 3}
      propertyPath: m_LocalRotation.z
      value: 0
      objectReference: {fileID: 0}
    - target: {fileID: 771520381510280228, guid: 88c4d5f211b50ed4abd17682825527ff,
        type: 3}
      propertyPath: m_LocalRotation.w
      value: 1
      objectReference: {fileID: 0}
    - target: {fileID: 771520381510280228, guid: 88c4d5f211b50ed4abd17682825527ff,
        type: 3}
      propertyPath: m_RootOrder
      value: 0
      objectReference: {fileID: 0}
    - target: {fileID: 771520381510280228, guid: 88c4d5f211b50ed4abd17682825527ff,
        type: 3}
      propertyPath: m_LocalEulerAnglesHint.x
      value: 0
      objectReference: {fileID: 0}
    - target: {fileID: 771520381510280228, guid: 88c4d5f211b50ed4abd17682825527ff,
        type: 3}
      propertyPath: m_LocalEulerAnglesHint.y
      value: 0
      objectReference: {fileID: 0}
    - target: {fileID: 771520381510280228, guid: 88c4d5f211b50ed4abd17682825527ff,
        type: 3}
      propertyPath: m_LocalEulerAnglesHint.z
      value: 0
      objectReference: {fileID: 0}
    m_RemovedComponents:
    - {fileID: 3249241764940084772, guid: 88c4d5f211b50ed4abd17682825527ff, type: 3}
  m_SourcePrefab: {fileID: 100100000, guid: 88c4d5f211b50ed4abd17682825527ff, type: 3}
--- !u!1 &5532420501255105364 stripped
GameObject:
  m_CorrespondingSourceObject: {fileID: 771520381510280232, guid: 88c4d5f211b50ed4abd17682825527ff,
    type: 3}
  m_PrefabInstance: {fileID: 5076654716520419196}
  m_PrefabAsset: {fileID: 0}
--- !u!114 &5076654715974802066 stripped
MonoBehaviour:
  m_CorrespondingSourceObject: {fileID: 1635751406, guid: 88c4d5f211b50ed4abd17682825527ff,
    type: 3}
  m_PrefabInstance: {fileID: 5076654716520419196}
  m_PrefabAsset: {fileID: 0}
  m_GameObject: {fileID: 0}
  m_Enabled: 1
  m_EditorHideFlags: 0
  m_Script: {fileID: -765806418, guid: f70555f144d8491a825f0804e09c671c, type: 3}
  m_Name: 
  m_EditorClassIdentifier: 
